{
  "project_info": {
    "project_number": "910650845596",
    "project_id": "pomodoro-timer-5c667",
    "storage_bucket": "pomodoro-timer-5c667.appspot.com"
  },
  "client": [
    {
      "client_info": {
        "mobilesdk_app_id": "1:910650845596:android:f25cd7383c19d507638059",
        "android_client_info": {
          "package_name": "com.example.rxjavatutorial"
        }
      },
      "oauth_client": [
        {
          "client_id": "910650845596-ho891sdkfulasl0ron265qohqae8icac.apps.googleusercontent.com",
          "client_type": 3
        }
      ],
      "api_key": [
        {
          "current_key": "AIzaSyCmDlQIOwwHFSQ42fPVoq5DCZjsd0qWEl4"
        }
      ],
      "services": {
        "appinvite_service": {
          "other_platform_oauth_client": [
            {
              "client_id": "910650845596-ho891sdkfulasl0ron265qohqae8icac.apps.googleusercontent.com",
              "client_type": 3
            }
          ]
        }
      }
    }
  ],
  "configuration_version": "1"
}